<?xml version="1.0" encoding="UTF-8"?>
<svg width="79px" height="90px" viewBox="0 0 79 90" version="1.1" xmlns="http://www.w3.org/2000/svg" xmlns:xlink="http://www.w3.org/1999/xlink">
    <!-- Generator: Sketch 41.1 (35376) - http://www.bohemiancoding.com/sketch -->
    <title>Group</title>
    <desc>Created with Sketch.</desc>
    <defs>
        <filter x="-50%" y="-50%" width="200%" height="200%" filterUnits="objectBoundingBox" id="filter-1">
            <feOffset dx="0" dy="2" in="SourceAlpha" result="shadowOffsetOuter1"></feOffset>
            <feGaussianBlur stdDeviation="3" in="shadowOffsetOuter1" result="shadowBlurOuter1"></feGaussianBlur>
            <feColorMatrix values="0 0 0 0 0.690157313   0 0 0 0 0.391964343   0 0 0 0 0  0 0 0 1 0" type="matrix" in="shadowBlurOuter1" result="shadowMatrixOuter1"></feColorMatrix>
            <feMerge>
                <feMergeNode in="shadowMatrixOuter1"></feMergeNode>
                <feMergeNode in="SourceGraphic"></feMergeNode>
            </feMerge>
        </filter>
    </defs>
    <g id="Page-1" stroke="none" stroke-width="1" fill="none" fill-rule="evenodd">
        <g id="iPhone-7" transform="translate(-86.000000, -922.000000)">
            <g id="Page-1" filter="url(#filter-1)" transform="translate(92.000000, 925.870365)">
                <g id="Group">
                    <polygon id="Fill-1" fill="#FFD96E" points="33.4086943 7.27272726e-05 -9.10326089e-05 19.2357091 -9.10326089e-05 58.8504364 33.4908057 77.9340727 66.8180258 58.8213455 66.8180258 19.2357091 33.4092405 7.27272726e-05"></polygon>
                    <polygon id="Fill-2" fill="#EDB443" points="8.37498179 52.0757091 33.4906965 77.9424364 66.8179166 58.8213455 66.8179166 38.9640727 58.4429166 23.6715273"></polygon>
                    <polygon id="Fill-3" fill="#37DBF2" points="8.375 23.6715818 8.375 53.3250364 33.4701413 67.6101273 58.4429348 53.3032182 58.4429348 23.6715818 33.4089674 9.27267273"></polygon>
                    <polygon id="Fill-4" fill="#4CC9CC" points="58.4429348 23.6913455 58.4429348 53.3031636 33.4701413 67.6149818 33.4089674 9.28261818"></polygon>
                    <polyline id="Fill-5" fill="#FFD96E" points="33.4443609 12.8377273 24.9837902 42.677 32.0985348 41.0691818 33.3325728 60.2631818 41.9049315 33.6475455 34.2088527 34.9782727"></polyline>
                </g>
            </g>
        </g>
    </g>
</svg>