<?xml version="1.0" encoding="UTF-8"?>
<svg width="29px" height="42px" viewBox="0 0 29 42" version="1.1" xmlns="http://www.w3.org/2000/svg" xmlns:xlink="http://www.w3.org/1999/xlink">
    <!-- Generator: Sketch 42 (36781) - http://www.bohemiancoding.com/sketch -->
    <title>Fill 5</title>
    <desc>Created with Sketch.</desc>
    <defs></defs>
    <g id="Game-UI" stroke="none" stroke-width="1" fill="none" fill-rule="evenodd">
        <g id="iPhone-7" transform="translate(-67.000000, -449.000000)" fill="#FFFFFF">
            <g id="Group-7" transform="translate(43.000000, 118.000000)">
                <g id="destroy" transform="translate(0.000000, 330.759615)">
                    <g id="Group-10" transform="translate(0.799296, 0.000000)">
                        <path d="M51.1207424,33.4494779 C53.6439809,26.4492536 51.2935686,22.2404115 43.7142578,12.7975933 C36.1349469,3.35477512 40.256819,2.2606118 40.6444333,0.429894754 C35.5286136,5.2976564 31.0371008,13.5272991 33.7831628,20.940049 C32.5151135,21.2979406 27.8885919,16.4806323 28.6875792,13.8756042 C27.8885922,20.940049 24.7896765,22.1007965 23.8696544,24.9789758 C21.5129245,32.3517234 30.2289881,41.987005 32.9450896,41.4268561 C35.661191,40.8668748 38.0732909,34.1232527 39.2923248,28.042953 C41.6097116,30.0125307 45.2302501,38.5612541 39.2923248,41.4268561 C41.8324156,41.0183923 48.5827586,40.6609767 51.1207424,33.4494779 Z" id="Fill-5"></path>
                    </g>
                </g>
            </g>
        </g>
    </g>
</svg>