<?xml version="1.0" encoding="utf-8"?>
<!-- Generator: Adobe Illustrator 19.0.0, SVG Export Plug-In . SVG Version: 6.00 Build 0)  -->
<svg version="1.1" id="Layer_1" xmlns="http://www.w3.org/2000/svg" xmlns:xlink="http://www.w3.org/1999/xlink" x="0px" y="0px"
	 viewBox="-455 257 48 48" style="enable-background:new -455 257 48 48;" xml:space="preserve">
<style type="text/css">
	.st0{fill:#FFFFFF;stroke:#FFFFFF;stroke-miterlimit:10;}
	.st1{fill:#707070;stroke:#FFFFFF;stroke-miterlimit:10;}
</style>
<title>Bitmap</title>
<desc>Created with Sketch.</desc>
<g id="Profile">
	<g id="Home-Page-v3-Copy" transform="translate(-256.000000, -155.000000)">
		<g>
			<path class="st0" d="M-182,437c2,2,4,3.9,5.9,5.8c6.2-6.2,12.4-12.3,18.5-18.4c-2-2-3.9-3.9-5.9-5.9
				C-169.6,424.7-175.8,430.9-182,437z M-177.9,444.8c-2-2-4-3.9-6-5.8c-1.4,3.4-2.8,6.7-4.3,10.1
				C-184.6,447.7-181.3,446.2-177.9,444.8z"/>
			<path class="st1" d="M-199,418c0.2,0,0.4,0,0.6,0c9.6,0,19.3,0,28.9,0c0.2,0,0.3,0,0.6,0c-0.4,0.4-0.7,0.7-1,1
				c-1.4,1.5-2.8,2.9-4.1,4.4c-0.2,0.2-0.4,0.3-0.6,0.3c-6.1,0-12.2,0-18.3,0c-0.2,0-0.3,0-0.5,0c0,10.1,0,20.2,0,30.4
				c0.1,0,0.3,0,0.4,0c9.9,0,19.8,0,29.7,0c0.4,0,0.4-0.1,0.4-0.5c0-6,0-11.9,0-17.9c0-0.3,0.1-0.6,0.3-0.8c1.8-1.7,3.5-3.5,5.3-5.2
				c0,0,0.1-0.1,0.2-0.1c0,0.2,0,0.4,0,0.5c0,9.7,0,19.5,0,29.2c0,0.2,0,0.4,0,0.5c-14,0-28,0-41.9,0C-199,446-199,432-199,418z"/>
			<path class="st1" d="M-151,416.8c-0.2,1.4-1.1,2.4-2.1,3.3c-0.8,0.7-1.5,1.5-2.2,2.2c-2-2-4-4-6-6c0.4-0.4,0.8-0.8,1.3-1.2
				c0.5-0.5,1-1,1.5-1.5c0.7-0.8,1.6-1.2,2.7-1.4c0.3,0,0.7,0,1,0c0.1,0,0.1,0,0.2,0.1c1.4,0.3,2.5,1.1,3.2,2.4
				c0.2,0.4,0.3,0.8,0.4,1.2C-151,416-151,416.5-151,416.8z"/>
			<path class="st1" d="M-182,437c6.2-6.2,12.4-12.4,18.6-18.5c1.9,1.9,3.9,3.9,5.9,5.9c-6.1,6.1-12.3,12.3-18.5,18.4
				C-178,441-180,439-182,437z"/>
			<path class="st1" d="M-177.9,444.8c-3.4,1.4-6.8,2.9-10.2,4.3c1.4-3.4,2.8-6.7,4.3-10.1C-181.8,441-179.9,442.9-177.9,444.8z"/>
		</g>
	</g>
</g>
</svg>
