<?xml version="1.0" encoding="UTF-8"?>
<svg width="71px" height="70px" viewBox="0 0 71 70" version="1.1" xmlns="http://www.w3.org/2000/svg" xmlns:xlink="http://www.w3.org/1999/xlink">
    <!-- Generator: Sketch 41.1 (35376) - http://www.bohemiancoding.com/sketch -->
    <title>Group 5</title>
    <desc>Created with Sketch.</desc>
    <defs></defs>
    <g id="Page-1" stroke="none" stroke-width="1" fill="none" fill-rule="evenodd">
        <g id="iPhone-7" transform="translate(-7.000000, -2275.000000)">
            <g id="Group-5" transform="translate(42.895502, 2310.173324) rotate(-10.000000) translate(-42.895502, -2310.173324) translate(8.395502, 2275.673324)">
                <g id="Group-2" transform="translate(0.000000, 0.000000)">
                    <ellipse id="Oval-2" stroke="#008966" opacity="0.349728267" cx="34.1015441" cy="34.1015441" rx="34.1015441" ry="34.1015441"></ellipse>
                    <text id="$" font-family="DINNextLTPro-UltraLight, DIN Next LT Pro" font-size="58" font-weight="200" fill="#00A67B">
                        <tspan x="16.9629457" y="53.446937">$</tspan>
                    </text>
                </g>
            </g>
        </g>
    </g>
</svg>