<?xml version="1.0" encoding="UTF-8"?>
<svg width="6px" height="15px" viewBox="0 0 6 15" version="1.1" xmlns="http://www.w3.org/2000/svg" xmlns:xlink="http://www.w3.org/1999/xlink">
    <!-- Generator: Sketch 41.1 (35376) - http://www.bohemiancoding.com/sketch -->
    <title>join-icon</title>
    <desc>Created with Sketch.</desc>
    <defs></defs>
    <g id="Card-Changes" stroke="none" stroke-width="1" fill="none" fill-rule="evenodd">
        <g id="Artboard-2" transform="translate(-464.000000, -761.000000)" fill="#FFDD6B">
            <g id="Group-14" transform="translate(311.000000, 547.000000)">
                <g id="Group-8">
                    <g id="Group-7">
                        <g id="Group-7-Copy-5">
                            <g id="Group-3">
                                <g id="Join-Button" transform="translate(134.000000, 208.000000)">
                                    <g id="Group-4">
                                        <g id="Group-12" transform="translate(9.000000, 6.000000)">
                                            <path d="M14.1537925,5.27054642 C14.1550254,6.18454251 14.1585872,6.18550144 15.0646379,6.19467976 C15.3108086,6.19714557 15.5569793,6.19509073 15.9882232,6.19509073 C14.7772332,9.05763005 13.6210391,11.790029 12.464982,14.522428 C12.4219672,14.5190033 12.3789524,14.5154416 12.3359376,14.5120168 C12.3359376,13.7384353 12.3360746,12.9649907 12.3359376,12.1914092 C12.3359376,11.1642595 12.3081287,10.1361509 12.3462118,9.11050812 C12.3684042,8.51021872 12.1526452,8.26651383 11.5571505,8.32254266 C11.267828,8.34966665 10.9738478,8.32720032 10.5,8.32720032 C11.710853,5.46479798 12.8669101,2.73239899 14.0228303,0 C14.066256,0.00397270484 14.1096818,0.00780841986 14.1531076,0.0117811247 C14.1531076,1.76470289 14.1514637,3.51762465 14.1537925,5.27054642 Z" id="join-icon"></path>
                                        </g>
                                    </g>
                                </g>
                            </g>
                        </g>
                    </g>
                </g>
            </g>
        </g>
    </g>
</svg>