<?xml version="1.0" encoding="UTF-8"?>
<svg width="23px" height="19px" viewBox="0 0 23 19" version="1.1" xmlns="http://www.w3.org/2000/svg" xmlns:xlink="http://www.w3.org/1999/xlink">
    <!-- Generator: Sketch 41.1 (35376) - http://www.bohemiancoding.com/sketch -->
    <title>Group</title>
    <desc>Created with Sketch.</desc>
    <defs>
        <rect id="path-1" x="0.71875" y="9.77981651" width="21.0833333" height="8.11009174"></rect>
        <mask id="mask-2" maskContentUnits="userSpaceOnUse" maskUnits="objectBoundingBox" x="0" y="0" width="21.0833333" height="8.11009174" fill="white">
            <use xlink:href="#path-1"></use>
        </mask>
    </defs>
    <g id="Card-Changes" stroke="none" stroke-width="1" fill="none" fill-rule="evenodd">
        <g id="Artboard-2" transform="translate(-446.000000, -406.000000)">
            <g id="Group-14" transform="translate(312.000000, 232.000000)">
                <g id="Group-8">
                    <g id="Group" transform="translate(134.000000, 175.000000)">
                        <g id="Group-9">
                            <ellipse id="Oval-10" stroke="#979797" cx="11.2604167" cy="4.05504587" rx="4.07291667" ry="4.05504587"></ellipse>
                            <use id="Rectangle-6" stroke="#979797" mask="url(#mask-2)" stroke-width="2" xlink:href="#path-1"></use>
                            <rect id="Rectangle-12" fill="#FFFFFF" x="0" y="16.2201835" width="23" height="1.77981651"></rect>
                        </g>
                    </g>
                </g>
            </g>
        </g>
    </g>
</svg>