<?xml version="1.0" encoding="UTF-8"?>
<svg width="24px" height="23px" viewBox="0 0 24 23" version="1.1" xmlns="http://www.w3.org/2000/svg" xmlns:xlink="http://www.w3.org/1999/xlink">
    <!-- Generator: Sketch 41.1 (35376) - http://www.bohemiancoding.com/sketch -->
    <title>Group 10</title>
    <desc>Created with Sketch.</desc>
    <defs>
        <rect id="path-1" x="0" y="15.0002107" width="14.8789489" height="2.52423505"></rect>
        <mask id="mask-2" maskContentUnits="userSpaceOnUse" maskUnits="objectBoundingBox" x="0" y="0" width="14.8789489" height="2.52423505" fill="white">
            <use xlink:href="#path-1"></use>
        </mask>
        <rect id="path-3" x="0" y="11.2001857" width="14.8789489" height="2.52423505"></rect>
        <mask id="mask-4" maskContentUnits="userSpaceOnUse" maskUnits="objectBoundingBox" x="0" y="0" width="14.8789489" height="2.52423505" fill="white">
            <use xlink:href="#path-3"></use>
        </mask>
        <rect id="path-5" x="0" y="7.40016074" width="14.8789489" height="2.52423505"></rect>
        <mask id="mask-6" maskContentUnits="userSpaceOnUse" maskUnits="objectBoundingBox" x="0" y="0" width="14.8789489" height="2.52423505" fill="white">
            <use xlink:href="#path-5"></use>
        </mask>
        <rect id="path-7" x="0" y="3.70008037" width="14.8789489" height="2.52423505"></rect>
        <mask id="mask-8" maskContentUnits="userSpaceOnUse" maskUnits="objectBoundingBox" x="0" y="0" width="14.8789489" height="2.52423505" fill="white">
            <use xlink:href="#path-7"></use>
        </mask>
        <rect id="path-9" x="0" y="0" width="14.8789489" height="2.52423505"></rect>
        <mask id="mask-10" maskContentUnits="userSpaceOnUse" maskUnits="objectBoundingBox" x="0" y="0" width="14.8789489" height="2.52423505" fill="white">
            <use xlink:href="#path-9"></use>
        </mask>
    </defs>
    <g id="Card-Changes" stroke="none" stroke-width="1" fill="none" fill-rule="evenodd">
        <g id="Artboard-2" transform="translate(-327.000000, -721.000000)">
            <g id="Group-14" transform="translate(311.000000, 547.000000)">
                <g id="Group-8">
                    <g id="Group-10" transform="translate(16.000000, 174.000000)">
                        <use id="Rectangle-9" stroke="#FFDD6B" mask="url(#mask-2)" stroke-width="2" fill="#FFDD6B" xlink:href="#path-1"></use>
                        <use id="Rectangle-9" stroke="#FFDD6B" mask="url(#mask-4)" stroke-width="2" fill="#FFDD6B" xlink:href="#path-3"></use>
                        <use id="Rectangle-9-Copy" stroke="#FFDD6B" mask="url(#mask-6)" stroke-width="2" fill="#FFDD6B" xlink:href="#path-5"></use>
                        <use id="Rectangle-9-Copy" stroke="#FFDD6B" mask="url(#mask-8)" stroke-width="2" fill="#FFDD6B" xlink:href="#path-7"></use>
                        <use id="Rectangle-9-Copy" stroke="#FFDD6B" mask="url(#mask-10)" stroke-width="2" fill="#FFDD6B" xlink:href="#path-9"></use>
                        <ellipse id="Oval-11" stroke="#FFDD6B" fill="#FFFFFF" cx="16" cy="15" rx="7" ry="7"></ellipse>
                        <text id="+" font-family="DINNextLTPro-Light, DIN Next LT Pro" font-size="22" font-weight="300" letter-spacing="-0.0244444422" fill="#FFDD6B">
                            <tspan x="10.5" y="21">+</tspan>
                        </text>
                    </g>
                </g>
            </g>
        </g>
    </g>
</svg>