[
  {
    "tag": "credits",
    "Q": "What are credits?",
    "A": "Credits are a what you spend to enter a game."
  },
  {
    "tag": "game-end",
    "Q": "How does a game end?",
    "A": "A game ends when either the intermediate timer or the ultimate timer run out."
  },
  {
    "tag": "intermediate-timer",
    "Q": "What is the intermediate timer?",
    "A": "The intermediate timer is a countdown timer that gets reset to 10 seconds after each bid."
  },
  {
    "tag": "ultimate-timer",
    "Q": "What is the ultimate timer?",
    "A": "The ultimate timer is a countdown timer that doesn't refresh that puts a hard end time on a game."
  }
]
