{
    "title": "ended auction data",
    "id": "#auction-ended",
    "type": "object",
    "properties": {
        "id": {
            "description": "auction id",
            "type": "integer",
            "minimum": 0
        },
        "reward": {
            "description": "the thing being auctioned off",
            "oneOf": [
                {"$ref": "#reward-item"},
                {"$ref": "#reward-physical-item"}
            ]
        },
        "start": {"type": "string"},
        "end": {"type": "string"},
        "realPrice": {"type": "integer", "minimum": 0},
        "position": {"type": ["integer", "null"], "minimum": 1},
        "lastBidUsername": {"type": ["string", "null"]},
        "minPrice": {"type": "integer", "minimum": 0},
        "bidPrice": {"type": "integer", "minimum": 0}
    },
    "required": [
        "id",
        "reward",
        "start",
        "end",
        "realPrice",
        "position",
        "lastBidUsername",
        "minPrice",
        "bidPrice"
    ],
    "additionalProperties": false
}
