{
    "title": "config data",
    "id": "#config",
    "type": "object",
    "properties": {
        "untilFreeze": {
            "description": "# bids until freeze activation",
            "type": "integer",
            "minimum": 0
        },
        "untilDestroy": {
            "description": "# bids until destroy activation",
            "type": "integer",
            "minimum": 0
        },
        "untilSteal": {
            "description": "# bids until steal activation",
            "type": "integer",
            "minimum": 0
        },
        "initNumBids": {
            "description": "Initial number of bids a user gets in an auction",
            "type": "integer",
            "minimum": 0
        },
        "maxUsersPerAuction": {
            "description": "Max # of users per auction",
            "type": "integer",
            "minimum": 1
        },
        "starLevels": {
          "description": "Hash of values to use when setting auction star levels",
          "type": "object",
          "properties": {
            "silver": {
              "description": "Price point where auctions above this price are silver",
              "type": "integer",
              "minimum": 0
            },
            "gold": {
              "description": "Price point where auctions above this price are gold",
              "type": "integer",
              "minimum": 0
            }
          }
        }

    },
    "additionalProperties": false,
    "required": [
        "untilFreeze",
        "untilDestroy",
        "untilSteal",
        "initNumBids",
        "maxUsersPerAuction"
    ]
}
