{
    "title": "current application user data",
    "id": "#user",
    "type": "object",
    "properties": {
        "id": {"type": "integer", "minimum": 0},
        "username": {"type": "string"},
        "first_name": {"type": "string"},
        "last_name": {"type": "string"},
        "credit": {"type": "integer", "minimum": 0},
        "avatar": {"type": ["string", "null"]},
        "email": {"type": "string", "format": "email"}
    },
    "required": [
        "id",
        "username",
        "first_name",
        "last_name",
        "credit",
        "avatar",
        "email"
    ],
    "additionalProperties": false
}
