{
  "auctions": [
    {
      "amount": "12.34",
      "bid": "123.45",
      "interval": "60",
      "abs": "300"
    },
    {
      "amount": "12.34",
      "start": "6000"
    },
    {
      "amount": "12.34",
      "bid": "123.45",
      "interval": "60",
      "abs": "300"
    },
    {
      "amount": "12.34",
      "start": "6000"
    },
    {
      "amount": "12.34",
      "bid": "123.45",
      "interval": "60",
      "abs": "300"
    },
    {
      "amount": "12.34",
      "start": "6000"
    },
    {
      "amount": "12.34",
      "start": "6000"
    },
  ]
}
