{
  "auctions_won": [
    {
      "num_users": 10,
      "wealth": {
        "num_coins": 123
      }
    },
    {
      "num_users": 3,
      "wealth": {
        "num_coins": 100
      }
    }
  ],
  "auctions_joined": [
    {
      "num_users": 2,
      "wealth": {
        "num_coins": 10
      }
    },
    {
      "num_users": 8,
      "wealth": {
        "num_coins": 2
      }
    },
    {
      "num_users": 29,
      "wealth": {
        "num_coins": 310
      }
    }
  ]
}
